…
In the above example, the following occurs:

1. All files in the base (`here::here()`) and sub directories (`recursive = TRUE`) with the extension ".xlsx" are listed 
2. Tables from excel files are automatically located and read via the `extract_table` function passed to `reader`
3. If there are multiple tables matching criteria on the same sheet, both are read (`table_mode = "all"`)

An example output looks like the following:

```{r}
# A tibble: 40 × 6
   sheet_name        `Sample ID` Value Notes Extra  source_file                                                      
   <chr>             <chr>       <chr> <chr> <chr>  <chr>                                                            
 1 clean_simple      A1          10    ok    NA     C:/Projects/trashpanda/test/extract_table_test_sheets - Copy.xlsx
 2 clean_simple      A2          12    ok    NA     C:/Projects/trashpanda/test/extract_table_test_sheets - Copy.xlsx
 3 clean_simple      A3          15    ok    NA     C:/Projects/trashpanda/test/extract_table_test_sheets - Copy.xlsx
 4 offset_table      B1          5     low   NA     C:/Projects/trashpanda/test/extract_table_test_sheets - Copy.xlsx
 5 offset_table      B2          8     mid   NA     C:/Projects/trashpanda/test/extract_table_test_sheets - Copy.xlsx
 6 dynamic_width     C1          1     x     NA     C:/Projects/trashpanda/test/extract_table_test_sheets - Copy.xlsx
 7 dynamic_width     C2          2     y     NA     C:/Projects/trashpanda/test/extract_table_test_sheets - Copy.xlsx
 8 explicit_last_col D1          100   a     ignore C:/Projects/trashpanda/test/extract_table_test_sheets - Copy.xlsx
 9 explicit_last_col D2          200   b     ignore C:/Projects/trashpanda/test/extract_table_test_sheets - Copy.xlsx
10 internal_blanks   E1          1     NA    NA     C:/Projects/trashpanda/test/extract_table_test_sheets - Copy.xlsx
# ℹ 30 more rows
```
